{"errCode": "0","data":{"pagination":{"page":3,"size":10,"totalPage":43,"total":430,"lastPage":false},"result":[{"skuInfo":["L","黑色"],"frontUserName":"y****0","content":"手感不错，质地柔软，穿上修身，挺满意的","createTime":1522678666440,"picList":["https://yanxuan.nosdn.127.net/ea6e88f16aaa8a5213937f2896312e2d.jpg","https://yanxuan.nosdn.127.net/51a94eb80ffab324b33e66fb32f03a7f.jpg","https://yanxuan.nosdn.127.net/5b8d901964a064c85eeac6e9e46b4364.jpg"],"frontUserAvatar":"https://yanxuan.nosdn.127.net/9ed9e10d10179ecb0307f677afc31609.jpg","commentReplyVO":null,"memberLevel":5,"appendCommentVO":null,"star":5,"itemId":1447011,"commentItemTagVO":null},{"skuInfo":["S","黑色"],"frontUserName":"丽****","content":"买了没试 应该不错","createTime":1522115034664,"picList":["https://yanxuan.nosdn.127.net/d888b628bfc2c7faf5786faaf1f3cc79.jpg"],"frontUserAvatar":"http://q.qlogo.cn/qqapp/101330628/9E04177F5DA722ED11BC88507077BB10/100","commentReplyVO":null,"memberLevel":6,"appendCommentVO":null,"star":5,"itemId":1447011,"commentItemTagVO":null},{"skuInfo":["M","黑色"],"frontUserName":"m****1","content":"","createTime":1521728581740,"picList":["https://yanxuan.nosdn.127.net/dd6f461931cd232e9603fcb0a0699517.jpg"],"frontUserAvatar":null,"commentReplyVO":null,"memberLevel":4,"appendCommentVO":null,"star":5,"itemId":1447011,"commentItemTagVO":null},{"skuInfo":["M","黑色"],"frontUserName":"h****y","content":"棒棒哒","createTime":1521556436057,"picList":["https://yanxuan.nosdn.127.net/49e470c8b49bfec7a47c721a15c04202.jpg"],"frontUserAvatar":null,"commentReplyVO":null,"memberLevel":6,"appendCommentVO":null,"star":5,"itemId":1447011,"commentItemTagVO":null},{"skuInfo":["S","黑色"],"frontUserName":"m****6","content":"质量很不错 沉甸甸的 暖一点就可以穿了","createTime":1521184720990,"picList":["https://yanxuan.nosdn.127.net/de68fbbd71f6a934c767fd558b6c6bcd.jpg"],"frontUserAvatar":null,"commentReplyVO":null,"memberLevel":6,"appendCommentVO":null,"star":5,"itemId":1447011,"commentItemTagVO":null},{"skuInfo":["L","黑色"],"frontUserName":"倩****","content":"这个还没穿，我们这里好热，试了试应该款式大小可以，就是不知道质量！穿过了再来评价！","createTime":1520831873405,"picList":["https://yanxuan.nosdn.127.net/6ca1bcf2e73dc0e01fbc3cb1a2c176af.jpg"],"frontUserAvatar":"https://yanxuan.nosdn.127.net/ab54c449f5679f045f5260cb81ea5aa8.jpg","commentReplyVO":null,"memberLevel":5,"appendCommentVO":null,"star":4,"itemId":1447011,"commentItemTagVO":null},{"skuInfo":["M","黑色"],"frontUserName":"m****3","content":"太棒了，客服推荐的尺码非常合适，身高160体重108M码。衣服弹性很好，垂感好，还没下水，希望不掉色。","createTime":1519182244726,"picList":["https://yanxuan.nosdn.127.net/ae155b1c5327c424602893e5cdd281f8.jpg"],"frontUserAvatar":null,"commentReplyVO":null,"memberLevel":5,"appendCommentVO":null,"star":5,"itemId":1447011,"commentItemTagVO":null},{"skuInfo":["L","黑色"],"frontUserName":"周****","content":"哇，配上暗红色的高跟鞋，穿上人很精神。料子针织，很有分量，黑色和款式都遮住了我的游泳圈。\uD83D\uDC4D","createTime":1520088589008,"picList":["https://yanxuan.nosdn.127.net/d204b1fcc3ef63a51a36b994230fb02e.jpg"],"frontUserAvatar":"http://yanxuan.nosdn.127.net/5a4068ff0d0adff3a3b43dbe429c9ebb","commentReplyVO":null,"memberLevel":4,"appendCommentVO":null,"star":5,"itemId":1447011,"commentItemTagVO":null},{"skuInfo":["S","黑色"],"frontUserName":"m****1","content":"和nine west一款一样除了小圆领，最好搭配的小黑裙随便都能配","createTime":1519564503000,"picList":["https://yanxuan.nosdn.127.net/f6aceea8126173078f09c41a0f63f6f7.jpg"],"frontUserAvatar":null,"commentReplyVO":null,"memberLevel":4,"appendCommentVO":null,"star":5,"itemId":1447011,"commentItemTagVO":null},{"skuInfo":["M","黑色"],"frontUserName":"y****1","content":"刚刚收到货就迫不及待的拆开来看，裙子有垂坠质感，值得拥有的小黑裙","createTime":1519349855482,"picList":["https://yanxuan.nosdn.127.net/654426cd05d44477aaf594146c270375.jpg"],"frontUserAvatar":null,"commentReplyVO":null,"memberLevel":6,"appendCommentVO":null,"star":5,"itemId":1447011,"commentItemTagVO":null}],"relatedItemCommentTag":null}}