{"errCode":"0","data":{"pagination":{"page":2,"size":10,"totalPage":43,"total":430,"lastPage":false},"result":[{"skuInfo":["S","黑色"],"frontUserName":"ゞ****…","content":"裙子真的很好看，质量很好，穿上很显气质又修身。","createTime":1526269044801,"picList":["https://yanxuan.nosdn.127.net/c7c2e11d1acaabc6e81f6a46d619db4a.jpg","https://yanxuan.nosdn.127.net/9b98de44db5cde68f96a4da8f57b2c86.jpg"],"frontUserAvatar":"http://q.qlogo.cn/qqapp/1104949895/7BB2B6BB9E60854257F3E41D8878CBCC/100","commentReplyVO":null,"memberLevel":4,"appendCommentVO":null,"star":5,"itemId":1447011,"commentItemTagVO":null},{"skuInfo":["M","黑色"],"frontUserName":"☆****ヤ","content":"这个包装惊艳了我，裙子质量很好。","createTime":1526425472843,"picList":["https://yanxuan.nosdn.127.net/ceff0fb4a126d17668f8d2b40627ecb1.jpg"],"frontUserAvatar":"http://q.qlogo.cn/qqapp/1104949895/C19124345A8C7E9CE27EAFD02D78C6A9/100","commentReplyVO":null,"memberLevel":3,"appendCommentVO":null,"star":5,"itemId":1447011,"commentItemTagVO":null},{"skuInfo":["M","黑色"],"frontUserName":"m****1","content":"穿上真是太美了 本身宽肩 但穿上这件散摆的裙子 完全不显了 材质也超垂坠 超喜欢的 束腰的设计真是太美 现在每天都要看严选的新品推荐 已然成为了严选的死忠粉！","createTime":1526379771011,"picList":["https://yanxuan.nosdn.127.net/30b878c5729c8453595d259c806cda76.jpg","https://yanxuan.nosdn.127.net/e1f8c483fe0e04054eb8312461f752df.jpg","https://yanxuan.nosdn.127.net/9ac0244aeea05431ae39ac59be98d481.jpg","https://yanxuan.nosdn.127.net/ebb2be982694d832b9a50e87614c3ccf.jpg"],"frontUserAvatar":"https://yanxuan.nosdn.127.net/8032e97cbc50052f7962a52810717224.jpg","commentReplyVO":null,"memberLevel":6,"appendCommentVO":null,"star":5,"itemId":1447011,"commentItemTagVO":null},{"skuInfo":["S","黑色"],"frontUserName":"2****7","content":"天气还凉，暂时没试过后追评","createTime":1519570762183,"picList":[],"frontUserAvatar":"https://yanxuan.nosdn.127.net/177a143462646354c6703f4c488f8989.jpg","commentReplyVO":null,"memberLevel":6,"appendCommentVO":{"id":38816628,"createTime":1522389577691,"content":"今天天气不错终于有机会穿了，真的很好，修身显瘦，质量好","picList":["https://yanxuan.nosdn.127.net/13b4820ed6d7bd059482b4a9ebe43e78.jpg"],"commentReplyVO":null},"star":5,"itemId":1447011,"commentItemTagVO":null},{"skuInfo":["M","黑色"],"frontUserName":"尘****","content":"包装的好，衣服漂亮，年轻好几岁。严选\uD83D\uDC4C","createTime":1525072811063,"picList":["https://yanxuan.nosdn.127.net/6af79e578466d7850b5e029d8dbd64df.jpg","https://yanxuan.nosdn.127.net/30170827d317b6e8b939efca519f21f9.jpg","https://yanxuan.nosdn.127.net/f0163a938e457290b7303ebd5a2d1abe.jpg","https://yanxuan.nosdn.127.net/e709acbbaff79cfd45314b4632a46656.jpg"],"frontUserAvatar":"http://q.qlogo.cn/qqapp/101330628/2B8CF1AB54991890F21A23B99D300FF6/100","commentReplyVO":null,"memberLevel":5,"appendCommentVO":null,"star":5,"itemId":1447011,"commentItemTagVO":null},{"skuInfo":["M","黑色"],"frontUserName":"m****5","content":"很不错的一款裙子","createTime":1524994727338,"picList":["https://yanxuan.nosdn.127.net/7ff10450bb4455cdb39591864eb3acc1.jpg","https://yanxuan.nosdn.127.net/668c105ba9db7b63552cde8c15b89026.jpg"],"frontUserAvatar":null,"commentReplyVO":null,"memberLevel":4,"appendCommentVO":null,"star":5,"itemId":1447011,"commentItemTagVO":null},{"skuInfo":["S","黑色"],"frontUserName":"S****h","content":"衣服很漂亮，材质跟only类似的一款材质基本一样，很重","createTime":1524287083931,"picList":[],"frontUserAvatar":"https://yanxuan.nosdn.127.net/bae25552236c9812717cf81ff79efef5","commentReplyVO":null,"memberLevel":5,"appendCommentVO":{"id":39560089,"createTime":1524319340050,"content":"挺喜欢的","picList":["https://yanxuan.nosdn.127.net/49337683d1e22d12e0460035f7b5bfa0.jpg"],"commentReplyVO":null},"star":5,"itemId":1447011,"commentItemTagVO":null},{"skuInfo":["S","黑色"],"frontUserName":"t****t","content":"老婆很喜欢，裙子比较显身材，很合身，材质也不错。","createTime":1523876777912,"picList":["https://yanxuan.nosdn.127.net/0d15c6f2460abb80d72ca9c0e564a2bc.jpg"],"frontUserAvatar":null,"commentReplyVO":null,"memberLevel":4,"appendCommentVO":null,"star":5,"itemId":1447011,"commentItemTagVO":null},{"skuInfo":["L","黑色"],"frontUserName":"l****2","content":"看妈妈穿着多好看","createTime":1524018081632,"picList":["https://yanxuan.nosdn.127.net/9d7c5591465cc6da05389a1fa1dda32b.jpg"],"frontUserAvatar":null,"commentReplyVO":null,"memberLevel":5,"appendCommentVO":null,"star":5,"itemId":1447011,"commentItemTagVO":null},{"skuInfo":["XL","黑色"],"frontUserName":"m****8","content":"这个裙子高挑的人穿起来真的很好看。","createTime":1522368222258,"picList":["https://yanxuan.nosdn.127.net/6f9f3b04b09dbeb92de61479d2d62cf3.jpg"],"frontUserAvatar":null,"commentReplyVO":null,"memberLevel":6,"appendCommentVO":null,"star":5,"itemId":1447011,"commentItemTagVO":null}],"relatedItemCommentTag":null}}