{"errCode": "0","data":{"pagination":{"page":4,"size":10,"totalPage":43,"total":430,"lastPage":false},"result":[{"skuInfo":["L","黑色"],"frontUserName":"1****9","content":"很漂亮的裙子，我买了平时穿的号小了换了，建议买大一号穿着更舒服一些","createTime":1551588467821,"picList":[],"frontUserAvatar":null,"commentReplyVO":null,"memberLevel":6,"appendCommentVO":null,"star":5,"itemId":1447011,"commentItemTagVO":null},{"skuInfo":["S","黑色"],"frontUserName":"s****j","content":"买的东西太多，评价不过来了。总之，在网易严选买东西省时省力，质量一如既往的好、价格实惠，看到自己需要的装车。","createTime":1552059028234,"picList":[],"frontUserAvatar":null,"commentReplyVO":null,"memberLevel":6,"appendCommentVO":null,"star":5,"itemId":1447011,"commentItemTagVO":null},{"skuInfo":["M","黑色"],"frontUserName":"m****7","content":"心仪很久的裙子，这次碰到活动就下手了，质量很好，穿起来藏肚子，显腰身，很漂亮。","createTime":1546602109717,"picList":[],"frontUserAvatar":null,"commentReplyVO":null,"memberLevel":4,"appendCommentVO":null,"star":5,"itemId":1447011,"commentItemTagVO":null},{"skuInfo":["S","黑色"],"frontUserName":"再****娆","content":"这件绝对好评，穿上后气质一下就体现出来了，想买的下手吧，不用犹豫","createTime":1546871166764,"picList":[],"frontUserAvatar":"http://q.qlogo.cn/qqapp/101330628/2816A757A7BB1C437F614DCF9F8FEE73/100","commentReplyVO":null,"memberLevel":5,"appendCommentVO":null,"star":5,"itemId":1447011,"commentItemTagVO":null},{"skuInfo":["S","黑色"],"frontUserName":"C****","content":"很棒很棒很棒很棒很棒很棒很棒，老婆说可以的","createTime":1553196064049,"picList":[],"frontUserAvatar":"https://yanxuan.nosdn.127.net/c53b73a789d921c35f8f6f5dc1db9622.jpg","commentReplyVO":null,"memberLevel":5,"appendCommentVO":null,"star":5,"itemId":1447011,"commentItemTagVO":null},{"skuInfo":["M","黑色"],"frontUserName":"m****8","content":"还是很有质感的裙子，穿上效果不错，必购小黑裙，留下了~","createTime":1552185956185,"picList":[],"frontUserAvatar":"null","commentReplyVO":null,"memberLevel":5,"appendCommentVO":null,"star":5,"itemId":1447011,"commentItemTagVO":null},{"skuInfo":["M","黑色"],"frontUserName":"马****","content":"修身，质量不错，就是裙摆有点大","createTime":1520518659204,"picList":["https://yanxuan.nosdn.127.net/a38acefdd769ad5723ce407e3379eec2.png"],"frontUserAvatar":"http://yanxuan.nosdn.127.net/be035df09038595be8a2fd64c48a1097","commentReplyVO":null,"memberLevel":4,"appendCommentVO":null,"star":5,"itemId":1447011,"commentItemTagVO":null},{"skuInfo":["S","黑色"],"frontUserName":"W****i","content":"不错 很大牌 很修身 老公也说好看","createTime":1520087590368,"picList":["https://yanxuan.nosdn.127.net/29620e828cbf6e15752f62800057b657.jpg"],"frontUserAvatar":"https://yanxuan.nosdn.127.net/aa461b2f3125bbbc21746dbbbb96a8e1","commentReplyVO":null,"memberLevel":6,"appendCommentVO":null,"star":5,"itemId":1447011,"commentItemTagVO":null},{"skuInfo":["L","黑色"],"frontUserName":"z****1","content":"很修身！～买大了一码","createTime":1519965449622,"picList":["https://yanxuan.nosdn.127.net/36148bd22e9af199cc0aaa17cf9438d1.jpg"],"frontUserAvatar":null,"commentReplyVO":null,"memberLevel":5,"appendCommentVO":null,"star":5,"itemId":1447011,"commentItemTagVO":null},{"skuInfo":["L","黑色"],"frontUserName":"D****","content":"光线有点暗，衣服很舒服，167，57公斤，L码合适。","createTime":1518624580315,"picList":["https://yanxuan.nosdn.127.net/4cf251c9a242e031d640d8f4986868a0.jpg"],"frontUserAvatar":"https://yanxuan.nosdn.127.net/451a16df9d390464b0c9391e6eeca6de.jpg","commentReplyVO":null,"memberLevel":6,"appendCommentVO":null,"star":5,"itemId":1447011,"commentItemTagVO":null}],"relatedItemCommentTag":null}}