{"errCode":"0","data":{"pagination":{"page":1,"size":10,"totalPage":43,"total":426,"lastPage":false},"result":[{"skuInfo":["M","黑色"],"frontUserName":"耳****","content":"穿着非常有气质，显腿长，显腰细，哈哈，奥黛丽赫本风，超级喜欢","createTime":1525892551248,"picList":["https://yanxuan.nosdn.127.net/5ef9c6bc390c823119ccf4a5cb759447.jpg","https://yanxuan.nosdn.127.net/a9f8daa562d828349ad6eb5fd8982475.jpg","https://yanxuan.nosdn.127.net/93bce4c659fd8804678b904dfae8b656.jpg","https://yanxuan.nosdn.127.net/d6515036d240e0733aa5e172c1b0645b.jpg"],"frontUserAvatar":"http://thirdqq.qlogo.cn/qqapp/1104949895/3314E1893F4B4F5EF077B296EFFBFD2D/100","commentReplyVO":null,"memberLevel":2,"appendCommentVO":null,"star":5,"itemId":1447011,"commentItemTagVO":{"type":1,"schemeUrl":"https://m.you.163.com/topic/v1/look/list"}},{"skuInfo":["M","黑色"],"frontUserName":"A****","content":"被包装惊艳到了，裙子穿上特别显身材，面料略厚，空调房里可以穿","createTime":1527120142609,"picList":["https://yanxuan.nosdn.127.net/07beeb1cf6bf19797f0e6c49e360386c.jpg"],"frontUserAvatar":"https://yanxuan.nosdn.127.net/dc4d89af2baeb53c8cbb36936559a9b0.jpg","commentReplyVO":{"id":20138940,"replyContent":"收到您的评价严选万分欣喜，您的需求与满意就是我们不断前进的动力，我们会继续努力给您带来更佳的购物体验，望您持续关注网易严选，祝开心快乐每一天！","createTime":"2018-05-24 10:04:33"},"memberLevel":5,"appendCommentVO":null,"star":5,"itemId":1447011,"commentItemTagVO":null},{"skuInfo":["M","黑色"],"frontUserName":"w****c","content":"包装好，衣服质量超好，有质感垂感，穿在身上很有气质，两三百能买到这么好的衣服，真的性价比超高～不过衣服略厚，夏天太热肯定穿不了","createTime":1526877480962,"picList":["https://yanxuan.nosdn.127.net/484acbbbf0dc4334232d17c3c40a66b9.jpg","https://yanxuan.nosdn.127.net/8ee0b3e89d269d04266ee0fdf75c85d3.jpg","https://yanxuan.nosdn.127.net/43542baba46ce4c50641a12d36aed1d5.jpg"],"frontUserAvatar":"https://yanxuan.nosdn.127.net/75ebaece30849c5df7acf171ba576f97.jpg","commentReplyVO":{"id":20137515,"replyContent":"o(≧v≦)o感谢您的支持与认可，严选竭力追求为客户提供超高性价比的商品，期待您的再次选购，祝您生活愉快！","createTime":"2018-05-21 21:00:11"},"memberLevel":5,"appendCommentVO":null,"star":5,"itemId":1447011,"commentItemTagVO":null},{"skuInfo":["M","黑色"],"frontUserName":"p****1","content":"拿到手，感觉沉甸甸的啊。份量好重，厚实！款式简洁，不会过时。超赞！","createTime":1543913225907,"picList":["https://yanxuan.nosdn.127.net/be6bf64db89d3d0222d2241ebab5c1f9.jpg"],"frontUserAvatar":"http://yanxuan.nosdn.127.net/f23fab1b5a89ece5b5d9a57863dc2476","commentReplyVO":null,"memberLevel":3,"appendCommentVO":null,"star":5,"itemId":1447011,"commentItemTagVO":null},{"skuInfo":["XL","黑色"],"frontUserName":"霞****天","content":"请忽略拍照技术 实物好看 沉甸甸的 很有质感","createTime":1550490725462,"picList":["https://yanxuan.nosdn.127.net/d60d7d5c17835f986f12a847f1431042.jpg"],"frontUserAvatar":"https://yanxuan.nosdn.127.net/6f6da8466319c869a26d9541fdee66e1.jpg","commentReplyVO":null,"memberLevel":5,"appendCommentVO":null,"star":5,"itemId":1447011,"commentItemTagVO":null},{"skuInfo":["L","黑色"],"frontUserName":"m****6","content":"非常显瘦！裙摆有垂感。稍厚，不会皱。总体评价100分！","createTime":1544349500374,"picList":["https://yanxuan.nosdn.127.net/160fbdbc7bc07e087e8ca704c67b9d07.jpg"],"frontUserAvatar":null,"commentReplyVO":null,"memberLevel":5,"appendCommentVO":null,"star":5,"itemId":1447011,"commentItemTagVO":null},{"skuInfo":["S","黑色"],"frontUserName":"张****玲","content":"裙子垂感不错，有赫本风，但有点厚，只能秋天再穿了。这包装实在太帅了","createTime":1528026892063,"picList":["https://yanxuan.nosdn.127.net/f8e8474ca42273922e929ce86a1173f7.jpg","https://yanxuan.nosdn.127.net/79520a48365baec229989974d77c6efb.jpg"],"frontUserAvatar":"https://yanxuan.nosdn.127.net/68c7e61fef2dec8803f0c7810be30bc8","commentReplyVO":null,"memberLevel":6,"appendCommentVO":null,"star":5,"itemId":1447011,"commentItemTagVO":null},{"skuInfo":["M","黑色"],"frontUserName":"扬****","content":"很厚实的针织裙。只是不知道洗过后如何整形处理。版型相当不错。显瘦，显腰细。高跟鞋效果应该更好。","createTime":1526979550957,"picList":["https://yanxuan.nosdn.127.net/4a59942ea8840c4c686e6cefe9fd5fe4.jpg"],"frontUserAvatar":"https://yanxuan.nosdn.127.net/2a08fac3917cb13d88b90bee1660b0f0","commentReplyVO":null,"memberLevel":6,"appendCommentVO":null,"star":5,"itemId":1447011,"commentItemTagVO":null},{"skuInfo":["S","黑色"],"frontUserName":"熊****仙","content":"款式很不错，束腰显瘦，今年的流行款，老婆穿着很nice。颜色可选只有黑色，少了点，期待更多的颜色","createTime":1526017551836,"picList":["https://yanxuan.nosdn.127.net/175e563d81ea4bac86af1800799e5538.jpg"],"frontUserAvatar":"https://yanxuan.nosdn.127.net/aa722664acb5b3499f5f5f19d64c51f7.jpg","commentReplyVO":null,"memberLevel":4,"appendCommentVO":null,"star":5,"itemId":1447011,"commentItemTagVO":null},{"skuInfo":["XL","黑色"],"frontUserName":"f****","content":"小胖子穿上也很显瘦，严选质量太赞\uD83D\uDC4D\uD83C\uDFFB同事都被圈粉了    准备再入手个衬衫","createTime":1521958071787,"picList":["https://yanxuan.nosdn.127.net/1ed872874ed259fb7ab28c3bbd660760.jpg"],"frontUserAvatar":"http://yanxuan.nosdn.127.net/80ce726dc7380620c44bb55643a633ee","commentReplyVO":null,"memberLevel":4,"appendCommentVO":null,"star":5,"itemId":1447011,"commentItemTagVO":null}],"relatedItemCommentTag":null}}